Fetch Figure Generation State — FG_fetch_state • formods
…
#> 
#> 
#> $FG$DSV$ds
#> $FG$DSV$ds$myDS
#> $FG$DSV$ds$myDS$label
#> [1] "Original data set"
#> 
#> $FG$DSV$ds$myDS$MOD_TYPE
#> [1] "UD"
#> 
#> $FG$DSV$ds$myDS$id
#> [1] "UD"
#> 
#> $FG$DSV$ds$myDS$DS
#> # A tibble: 10,680 × 33
#>       ID TIME_DY TIME_HR NTIME_DY NTIME_HR  TIME     AMT    DV RECDESC     DOSE
#>    <dbl>   <dbl>   <dbl>    <dbl>    <dbl> <dbl>   <dbl> <dbl> <chr>      <dbl>
#>  1     1       0       0        0        0     0 3000000    0  dose     3000000
#>  2     1       0       0        0        0     0       0 1250  BM_ng_ml 3000000
#>  3     1       0       0        0        0     0       0    0  C_ng_ml  3000000
#>  4     1       1      24        1       24    24       0 1647  BM_ng_ml 3000000
#>  5     1       1      24        1       24    24       0  690. C_ng_ml  3000000
#>  6     1       2      48        2       48    48       0 1947  BM_ng_ml 3000000
#>  7     1       2      48        2       48    48       0  588. C_ng_ml  3000000
#>  8     1       3      72        3       72    72       0 2170  BM_ng_ml 3000000
#>  9     1       3      72        3       72    72       0  506. C_ng_ml  3000000
#> 10     1       4      96        4       96    96       0 2332  BM_ng_ml 3000000
#> # ℹ 10,670 more rows
#> # ℹ 23 more variables: DOSE_STR <chr>, Cohort <chr>, ROUTE <chr>, WT <dbl>,
#> #   SUBTYPE <chr>, SEX <chr>, F1 <dbl>, ka <dbl>, CL <dbl>, Vc <dbl>, Vp <dbl>,
#> #   Q <dbl>, BM_IC <dbl>, kdeg_BM <dbl>, Emax <dbl>, EC50 <dbl>, CMT <chr>,
#> #   DUR <dbl>, EVID <dbl>, NDose <chr>, DOSE_NUM <dbl>, SUBTYPE_ID <dbl>,
#> #   SEX_ID <dbl>
…
#> [1] "897d952fecbc804999396a96f9df4b20"
#> 
#> 
#> $FG$DSV$ds$DW_myDS_1
#> $FG$DSV$ds$DW_myDS_1$label
#> [1] "Observations"
#> 
#> $FG$DSV$ds$DW_myDS_1$MOD_TYPE
#> [1] "DW"
#> 
#> $FG$DSV$ds$DW_myDS_1$id
#> [1] "DW"
#> 
#> $FG$DSV$ds$DW_myDS_1$DS
#> # A tibble: 9,240 × 34
#>       ID TIME_DY TIME_HR NTIME_DY NTIME_HR  TIME   AMT    DV RECDESC     DOSE
#>    <dbl>   <dbl>   <dbl>    <dbl>    <dbl> <dbl> <dbl> <dbl> <chr>      <dbl>
#>  1     1       0       0        0        0     0     0 1250  BM_ng_ml 3000000
#>  2     1       1      24        1       24    24     0 1647  BM_ng_ml 3000000
#>  3     1       1      24        1       24    24     0  690. C_ng_ml  3000000
#>  4     1       2      48        2       48    48     0 1947  BM_ng_ml 3000000
#>  5     1       2      48        2       48    48     0  588. C_ng_ml  3000000
#>  6     1       3      72        3       72    72     0 2170  BM_ng_ml 3000000
#>  7     1       3      72        3       72    72     0  506. C_ng_ml  3000000
#>  8     1       4      96        4       96    96     0 2332  BM_ng_ml 3000000
#>  9     1       4      96        4       96    96     0  438. C_ng_ml  3000000
#> 10     1       7     168        7      168   168     0 2576  BM_ng_ml 3000000
#> # ℹ 9,230 more rows
#> # ℹ 24 more variables: DOSE_STR <chr>, Cohort <chr>, ROUTE <chr>, WT <dbl>,
#> #   SUBTYPE <chr>, SEX <chr>, F1 <dbl>, ka <dbl>, CL <dbl>, Vc <dbl>, Vp <dbl>,
#> #   Q <dbl>, BM_IC <dbl>, kdeg_BM <dbl>, Emax <dbl>, EC50 <dbl>, CMT <chr>,
#> #   DUR <dbl>, EVID <dbl>, NDose <chr>, DOSE_NUM <dbl>, SUBTYPE_ID <dbl>,
#> #   SEX_ID <dbl>, IDCMT <chr>
…
#> [1] "cb29ad3409843925da16295fa345c326"
#> 
#> 
#> $FG$DSV$ds$DW_myDS_2
#> $FG$DSV$ds$DW_myDS_2$label
#> [1] "PK 3mg SD IV"
#> 
#> $FG$DSV$ds$DW_myDS_2$MOD_TYPE
#> [1] "DW"
#> 
#> $FG$DSV$ds$DW_myDS_2$id
#> [1] "DW"
#> 
#> $FG$DSV$ds$DW_myDS_2$DS
#> # A tibble: 180 × 33
#>       ID TIME_DY TIME_HR NTIME_DY NTIME_HR  TIME   AMT    DV RECDESC    DOSE
#>    <dbl>   <dbl>   <dbl>    <dbl>    <dbl> <dbl> <dbl> <dbl> <chr>     <dbl>
#>  1     1       1      24        1       24    24     0 690.  C_ng_ml 3000000
#>  2     1       2      48        2       48    48     0 588.  C_ng_ml 3000000
#>  3     1       3      72        3       72    72     0 506.  C_ng_ml 3000000
#>  4     1       4      96        4       96    96     0 438.  C_ng_ml 3000000
#>  5     1       7     168        7      168   168     0 303.  C_ng_ml 3000000
#>  6     1      21     504       21      504   504     0 123.  C_ng_ml 3000000
#>  7     1      28     672       28      672   672     0  95.5 C_ng_ml 3000000
#>  8     1      35     840       35      840   840     0  75.8 C_ng_ml 3000000
#>  9     1      42    1008       42     1008  1008     0  60.6 C_ng_ml 3000000
#> 10     2       1      24        1       24    24     0 750.  C_ng_ml 3000000
#> # ℹ 170 more rows
#> # ℹ 23 more variables: DOSE_STR <chr>, Cohort <chr>, ROUTE <chr>, WT <dbl>,
#> #   SUBTYPE <chr>, SEX <chr>, F1 <dbl>, ka <dbl>, CL <dbl>, Vc <dbl>, Vp <dbl>,
#> #   Q <dbl>, BM_IC <dbl>, kdeg_BM <dbl>, Emax <dbl>, EC50 <dbl>, CMT <chr>,
#> #   DUR <dbl>, EVID <dbl>, NDose <chr>, DOSE_NUM <dbl>, SUBTYPE_ID <dbl>,
#> #   SEX_ID <dbl>
…
#> [1] "5d4cc8acd24c561e39dd4c44c9be500e"
#> 
#> 
#> $FG$DSV$ds$DW_myDS_3
#> $FG$DSV$ds$DW_myDS_3$label
#> [1] "PK 3mg MD SC (first dose)"
#> 
#> $FG$DSV$ds$DW_myDS_3$MOD_TYPE
#> [1] "DW"
#> 
#> $FG$DSV$ds$DW_myDS_3$id
#> [1] "DW"
#> 
#> $FG$DSV$ds$DW_myDS_3$DS
#> # A tibble: 100 × 33
#>       ID TIME_DY TIME_HR NTIME_DY NTIME_HR  TIME   AMT    DV RECDESC    DOSE
#>    <dbl>   <dbl>   <dbl>    <dbl>    <dbl> <dbl> <dbl> <dbl> <chr>     <dbl>
#>  1   241       1      24        1       24    24     0  250. C_ng_ml 3000000
#>  2   241       2      48        2       48    48     0  305. C_ng_ml 3000000
#>  3   241       3      72        3       72    72     0  317. C_ng_ml 3000000
#>  4   241       4      96        4       96    96     0  315. C_ng_ml 3000000
#>  5   241       7     168        7      168   168     0  291. C_ng_ml 3000000
#>  6   242       1      24        1       24    24     0  126  C_ng_ml 3000000
#>  7   242       2      48        2       48    48     0  199. C_ng_ml 3000000
#>  8   242       3      72        3       72    72     0  245. C_ng_ml 3000000
#>  9   242       4      96        4       96    96     0  274. C_ng_ml 3000000
#> 10   242       7     168        7      168   168     0  314. C_ng_ml 3000000
#> # ℹ 90 more rows
#> # ℹ 23 more variables: DOSE_STR <chr>, Cohort <chr>, ROUTE <chr>, WT <dbl>,
#> #   SUBTYPE <chr>, SEX <chr>, F1 <dbl>, ka <dbl>, CL <dbl>, Vc <dbl>, Vp <dbl>,
#> #   Q <dbl>, BM_IC <dbl>, kdeg_BM <dbl>, Emax <dbl>, EC50 <dbl>, CMT <chr>,
#> #   DUR <dbl>, EVID <dbl>, NDose <chr>, DOSE_NUM <dbl>, SUBTYPE_ID <dbl>,
#> #   SEX_ID <dbl>
…
#> [1] "c6b602ca14709080d7149350f51f7e8c"
#> 
#> 
#> $FG$DSV$ds$DW_myDS_4
#> $FG$DSV$ds$DW_myDS_4$label
#> [1] "Parameters"
#> 
#> $FG$DSV$ds$DW_myDS_4$MOD_TYPE
#> [1] "DW"
#> 
#> $FG$DSV$ds$DW_myDS_4$id
#> [1] "DW"
#> 
#> $FG$DSV$ds$DW_myDS_4$DS
#> # A tibble: 1,800 × 7
#> # Groups:   ID [360]
#>       ID    DOSE DOSE_STR Cohort     ROUTE parameter values
#>    <dbl>   <dbl> <chr>    <chr>      <chr> <chr>      <dbl>
#>  1     1 3000000 3 mg     SD 3 mg IV IV    ka         0.449
#>  2     1 3000000 3 mg     SD 3 mg IV IV    CL         0.25 
#>  3     1 3000000 3 mg     SD 3 mg IV IV    Vc         3.67 
#>  4     1 3000000 3 mg     SD 3 mg IV IV    Vp         3.77 
#>  5     1 3000000 3 mg     SD 3 mg IV IV    Q          0.325
#>  6     2 3000000 3 mg     SD 3 mg IV IV    ka         0.408
#>  7     2 3000000 3 mg     SD 3 mg IV IV    CL         0.148
#>  8     2 3000000 3 mg     SD 3 mg IV IV    Vc         2.43 
#>  9     2 3000000 3 mg     SD 3 mg IV IV    Vp         2.84 
#> 10     2 3000000 3 mg     SD 3 mg IV IV    Q          1.31 
#> # ℹ 1,790 more rows
…
#> [1] "24cd058c982ef9a016c4ecdc3191ed00"
#> 
#> 
#> $FG$DSV$ds$DW_myDS_5
#> $FG$DSV$ds$DW_myDS_5$label
#> [1] "PK/PD 3mg SD IV w/BQL"
#> 
#> $FG$DSV$ds$DW_myDS_5$MOD_TYPE
#> [1] "DW"
#> 
#> $FG$DSV$ds$DW_myDS_5$id
#> [1] "DW"
#> 
#> $FG$DSV$ds$DW_myDS_5$DS
#> # A tibble: 400 × 33
#>       ID TIME_DY TIME_HR NTIME_DY NTIME_HR  TIME   AMT    DV RECDESC     DOSE
#>    <dbl>   <dbl>   <dbl>    <dbl>    <dbl> <dbl> <dbl> <dbl> <chr>      <dbl>
#>  1     1       0       0        0        0     0     0 1250  BM_ng_ml 3000000
#>  2     1       0       0        0        0     0     0    0  C_ng_ml  3000000
#>  3     1       1      24        1       24    24     0 1647  BM_ng_ml 3000000
#>  4     1       1      24        1       24    24     0  690. C_ng_ml  3000000
#>  5     1       2      48        2       48    48     0 1947  BM_ng_ml 3000000
#>  6     1       2      48        2       48    48     0  588. C_ng_ml  3000000
#>  7     1       3      72        3       72    72     0 2170  BM_ng_ml 3000000
#>  8     1       3      72        3       72    72     0  506. C_ng_ml  3000000
#>  9     1       4      96        4       96    96     0 2332  BM_ng_ml 3000000
#> 10     1       4      96        4       96    96     0  438. C_ng_ml  3000000
#> # ℹ 390 more rows
#> # ℹ 23 more variables: DOSE_STR <chr>, Cohort <chr>, ROUTE <chr>, WT <dbl>,
#> #   SUBTYPE <chr>, SEX <chr>, F1 <dbl>, ka <dbl>, CL <dbl>, Vc <dbl>, Vp <dbl>,
#> #   Q <dbl>, BM_IC <dbl>, kdeg_BM <dbl>, Emax <dbl>, EC50 <dbl>, CMT <chr>,
#> #   DUR <dbl>, EVID <dbl>, NDose <chr>, DOSE_NUM <dbl>, SUBTYPE_ID <dbl>,
#> #   SEX_ID <dbl>
…
#> [1] "e983eb3141e34f59e6e3262ef436f534"
#> 
#> 
#> $FG$DSV$ds$DW_myDS_6
#> $FG$DSV$ds$DW_myDS_6$label
#> [1] "PK/PD 3mg MD SC (first dose) w/BQL"
#> 
#> $FG$DSV$ds$DW_myDS_6$MOD_TYPE
#> [1] "DW"
#> 
#> $FG$DSV$ds$DW_myDS_6$id
#> [1] "DW"
#> 
#> $FG$DSV$ds$DW_myDS_6$DS
#> # A tibble: 240 × 33
#>       ID TIME_DY TIME_HR NTIME_DY NTIME_HR  TIME   AMT    DV RECDESC     DOSE
#>    <dbl>   <dbl>   <dbl>    <dbl>    <dbl> <dbl> <dbl> <dbl> <chr>      <dbl>
#>  1   241       0       0        0        0     0     0 1030  BM_ng_ml 3000000
#>  2   241       0       0        0        0     0     0    0  C_ng_ml  3000000
#>  3   241       1      24        1       24    24     0 1070  BM_ng_ml 3000000
#>  4   241       1      24        1       24    24     0  250. C_ng_ml  3000000
#>  5   241       2      48        2       48    48     0 1138  BM_ng_ml 3000000
#>  6   241       2      48        2       48    48     0  305. C_ng_ml  3000000
#>  7   241       3      72        3       72    72     0 1207  BM_ng_ml 3000000
#>  8   241       3      72        3       72    72     0  317. C_ng_ml  3000000
#>  9   241       4      96        4       96    96     0 1270  BM_ng_ml 3000000
#> 10   241       4      96        4       96    96     0  315. C_ng_ml  3000000
#> # ℹ 230 more rows
#> # ℹ 23 more variables: DOSE_STR <chr>, Cohort <chr>, ROUTE <chr>, WT <dbl>,
#> #   SUBTYPE <chr>, SEX <chr>, F1 <dbl>, ka <dbl>, CL <dbl>, Vc <dbl>, Vp <dbl>,
#> #   Q <dbl>, BM_IC <dbl>, kdeg_BM <dbl>, Emax <dbl>, EC50 <dbl>, CMT <chr>,
#> #   DUR <dbl>, EVID <dbl>, NDose <chr>, DOSE_NUM <dbl>, SUBTYPE_ID <dbl>,
#> #   SEX_ID <dbl>
…
#> [1] "f118294a4123d818049797b2fd186006"
#> 
#> 
#> $FG$DSV$ds$DW_myDS_7
#> $FG$DSV$ds$DW_myDS_7$label
#> [1] "PK 3mg SD IV w/BQL"
#> 
#> $FG$DSV$ds$DW_myDS_7$MOD_TYPE
#> [1] "DW"
#> 
#> $FG$DSV$ds$DW_myDS_7$id
#> [1] "DW"
#> 
#> $FG$DSV$ds$DW_myDS_7$DS
#> # A tibble: 200 × 33
#>       ID TIME_DY TIME_HR NTIME_DY NTIME_HR  TIME   AMT    DV RECDESC    DOSE
#>    <dbl>   <dbl>   <dbl>    <dbl>    <dbl> <dbl> <dbl> <dbl> <chr>     <dbl>
#>  1     1       0       0        0        0     0     0   0   C_ng_ml 3000000
#>  2     1       1      24        1       24    24     0 690.  C_ng_ml 3000000
#>  3     1       2      48        2       48    48     0 588.  C_ng_ml 3000000
#>  4     1       3      72        3       72    72     0 506.  C_ng_ml 3000000
#>  5     1       4      96        4       96    96     0 438.  C_ng_ml 3000000
#>  6     1       7     168        7      168   168     0 303.  C_ng_ml 3000000
#>  7     1      21     504       21      504   504     0 123.  C_ng_ml 3000000
#>  8     1      28     672       28      672   672     0  95.5 C_ng_ml 3000000
#>  9     1      35     840       35      840   840     0  75.8 C_ng_ml 3000000
#> 10     1      42    1008       42     1008  1008     0  60.6 C_ng_ml 3000000
#> # ℹ 190 more rows
#> # ℹ 23 more variables: DOSE_STR <chr>, Cohort <chr>, ROUTE <chr>, WT <dbl>,
#> #   SUBTYPE <chr>, SEX <chr>, F1 <dbl>, ka <dbl>, CL <dbl>, Vc <dbl>, Vp <dbl>,
#> #   Q <dbl>, BM_IC <dbl>, kdeg_BM <dbl>, Emax <dbl>, EC50 <dbl>, CMT <chr>,
#> #   DUR <dbl>, EVID <dbl>, NDose <chr>, DOSE_NUM <dbl>, SUBTYPE_ID <dbl>,
#> #   SEX_ID <dbl>
…
#> [1] "ab5246b6f6a91ce255ec054b4647886e"
#> 
#> 
#> $FG$DSV$ds$DW_myDS_8
#> $FG$DSV$ds$DW_myDS_8$label
#> [1] "PK 3mg SD IV w/BQL w/dosing"
#> 
#> $FG$DSV$ds$DW_myDS_8$MOD_TYPE
#> [1] "DW"
#> 
#> $FG$DSV$ds$DW_myDS_8$id
#> [1] "DW"
#> 
#> $FG$DSV$ds$DW_myDS_8$DS
#> # A tibble: 680 × 33
#>       ID TIME_DY TIME_HR NTIME_DY NTIME_HR  TIME     AMT    DV RECDESC     DOSE
#>    <dbl>   <dbl>   <dbl>    <dbl>    <dbl> <dbl>   <dbl> <dbl> <chr>      <dbl>
#>  1   121       0       0        0        0     0 3000000    0  dose     3000000
#>  2   121       0       0        0        0     0       0 1380  BM_ng_ml 3000000
#>  3   121       0       0        0        0     0       0    0  C_ng_ml  3000000
#>  4   121       1      24        1       24    24       0 1665  BM_ng_ml 3000000
#>  5   121       1      24        1       24    24       0  536. C_ng_ml  3000000
#>  6   121       2      48        2       48    48       0 1852  BM_ng_ml 3000000
#>  7   121       2      48        2       48    48       0  420. C_ng_ml  3000000
#>  8   121       3      72        3       72    72       0 1981  BM_ng_ml 3000000
#>  9   121       3      72        3       72    72       0  353. C_ng_ml  3000000
#> 10   121       4      96        4       96    96       0 2075  BM_ng_ml 3000000
#> # ℹ 670 more rows
#> # ℹ 23 more variables: DOSE_STR <chr>, Cohort <chr>, ROUTE <chr>, WT <dbl>,
#> #   SUBTYPE <chr>, SEX <chr>, F1 <dbl>, ka <dbl>, CL <dbl>, Vc <dbl>, Vp <dbl>,
#> #   Q <dbl>, BM_IC <dbl>, kdeg_BM <dbl>, Emax <dbl>, EC50 <dbl>, CMT <chr>,
#> #   DUR <dbl>, EVID <dbl>, NDose <chr>, DOSE_NUM <dbl>, SUBTYPE_ID <dbl>,
#> #   SEX_ID <dbl>
…
