Initialize FG Module State — FG_init_state • formods
…
#> 
#> 
#> $FG$DSV$ds
#> $FG$DSV$ds$myDS
#> $FG$DSV$ds$myDS$label
#> [1] "Original data set"
#> 
#> $FG$DSV$ds$myDS$MOD_TYPE
#> [1] "UD"
#> 
#> $FG$DSV$ds$myDS$id
#> [1] "UD"
#> 
#> $FG$DSV$ds$myDS$DS
#> # A tibble: 9,720 × 29
#>    NTIME_DY NTIME_HR    ID TIME_DY TIME_HR     AMT    DV RECDESC  DOSE DOSE_STR
#>       <dbl>    <dbl> <dbl>   <dbl>   <dbl>   <dbl> <dbl> <chr>   <dbl> <chr>   
#>  1   0          0        1  0         0    3000000    0  dose        3 3 mg    
#>  2   0.0104     0.25     1  0.0104    0.25       0 1001  C_ng_ml     3 3 mg    
#>  3   0.0208     0.5      1  0.0208    0.5        0  999. C_ng_ml     3 3 mg    
#>  4   0.0417     1        1  0.0417    1          0  995. C_ng_ml     3 3 mg    
#>  5   0.0833     2        1  0.0833    2          0  987. C_ng_ml     3 3 mg    
#>  6   0.167      4        1  0.167     4          0  970. C_ng_ml     3 3 mg    
#>  7   0.333      8        1  0.333     8          0  938. C_ng_ml     3 3 mg    
#>  8   1         24        1  1        24          0  823. C_ng_ml     3 3 mg    
#>  9   2         48        1  2        48          0  681. C_ng_ml     3 3 mg    
#> 10   3         72        1  3        72          0  568. C_ng_ml     3 3 mg    
#> # … with 9,710 more rows, and 19 more variables: Cohort <chr>, ROUTE <chr>,
#> #   WT <dbl>, SUBTYPE <chr>, SEX <chr>, F1 <dbl>, ka <dbl>, CL <dbl>, Vc <dbl>,
#> #   Vp <dbl>, Q <dbl>, CMT <chr>, DUR <dbl>, EVID <dbl>, NDose <chr>,
#> #   DOSE_NUM <dbl>, SUBTYPE_ID <dbl>, SEX_ID <dbl>, TIME <dbl>
…
#> [1] "631af84e28478adc1628dd2c9fb22662"
#> 
#> 
#> $FG$DSV$ds$DW_myDS_1
#> $FG$DSV$ds$DW_myDS_1$label
#> [1] "Observations"
#> 
#> $FG$DSV$ds$DW_myDS_1$MOD_TYPE
#> [1] "DW"
#> 
#> $FG$DSV$ds$DW_myDS_1$id
#> [1] "DW"
#> 
#> $FG$DSV$ds$DW_myDS_1$DS
#> # A tibble: 8,640 × 29
#>    NTIME_DY NTIME_HR    ID TIME_DY TIME_HR   AMT    DV RECDESC  DOSE DOSE_STR
#>       <dbl>    <dbl> <dbl>   <dbl>   <dbl> <dbl> <dbl> <chr>   <dbl> <chr>   
#>  1   0.0104     0.25     1  0.0104    0.25     0 1001  C_ng_ml     3 3 mg    
#>  2   0.0208     0.5      1  0.0208    0.5      0  999. C_ng_ml     3 3 mg    
#>  3   0.0417     1        1  0.0417    1        0  995. C_ng_ml     3 3 mg    
#>  4   0.0833     2        1  0.0833    2        0  987. C_ng_ml     3 3 mg    
#>  5   0.167      4        1  0.167     4        0  970. C_ng_ml     3 3 mg    
#>  6   0.333      8        1  0.333     8        0  938. C_ng_ml     3 3 mg    
#>  7   1         24        1  1        24        0  823. C_ng_ml     3 3 mg    
#>  8   2         48        1  2        48        0  681. C_ng_ml     3 3 mg    
#>  9   3         72        1  3        72        0  568. C_ng_ml     3 3 mg    
#> 10   4         96        1  4        96        0  480. C_ng_ml     3 3 mg    
#> # … with 8,630 more rows, and 19 more variables: Cohort <chr>, ROUTE <chr>,
#> #   WT <dbl>, SUBTYPE <chr>, SEX <chr>, F1 <dbl>, ka <dbl>, CL <dbl>, Vc <dbl>,
#> #   Vp <dbl>, Q <dbl>, CMT <chr>, DUR <dbl>, EVID <dbl>, NDose <chr>,
#> #   DOSE_NUM <dbl>, SUBTYPE_ID <dbl>, SEX_ID <dbl>, TIME <dbl>
…
#> [1] "7dc642086f01619fc74142a08defc3de"
#> 
#> 
#> $FG$DSV$ds$DW_myDS_2
#> $FG$DSV$ds$DW_myDS_2$label
#> [1] "3mg SD IV"
#> 
#> $FG$DSV$ds$DW_myDS_2$MOD_TYPE
#> [1] "DW"
#> 
#> $FG$DSV$ds$DW_myDS_2$id
#> [1] "DW"
#> 
#> $FG$DSV$ds$DW_myDS_2$DS
#> # A tibble: 320 × 29
#>    NTIME_DY NTIME_HR    ID TIME_DY TIME_HR   AMT    DV RECDESC  DOSE DOSE_STR
#>       <dbl>    <dbl> <dbl>   <dbl>   <dbl> <dbl> <dbl> <chr>   <dbl> <chr>   
#>  1   0.0104     0.25     1  0.0104    0.25     0 1001  C_ng_ml     3 3 mg    
#>  2   0.0208     0.5      1  0.0208    0.5      0  999. C_ng_ml     3 3 mg    
#>  3   0.0417     1        1  0.0417    1        0  995. C_ng_ml     3 3 mg    
#>  4   0.0833     2        1  0.0833    2        0  987. C_ng_ml     3 3 mg    
#>  5   0.167      4        1  0.167     4        0  970. C_ng_ml     3 3 mg    
#>  6   0.333      8        1  0.333     8        0  938. C_ng_ml     3 3 mg    
#>  7   1         24        1  1        24        0  823. C_ng_ml     3 3 mg    
#>  8   2         48        1  2        48        0  681. C_ng_ml     3 3 mg    
#>  9   3         72        1  3        72        0  568. C_ng_ml     3 3 mg    
#> 10   4         96        1  4        96        0  480. C_ng_ml     3 3 mg    
#> # … with 310 more rows, and 19 more variables: Cohort <chr>, ROUTE <chr>,
#> #   WT <dbl>, SUBTYPE <chr>, SEX <chr>, F1 <dbl>, ka <dbl>, CL <dbl>, Vc <dbl>,
#> #   Vp <dbl>, Q <dbl>, CMT <chr>, DUR <dbl>, EVID <dbl>, NDose <chr>,
#> #   DOSE_NUM <dbl>, SUBTYPE_ID <dbl>, SEX_ID <dbl>, TIME <dbl>
…
#> [1] "46f04fc6ac64d26f46b28adc5b8548a9"
#> 
#> 
#> $FG$DSV$ds$DW_myDS_3
#> $FG$DSV$ds$DW_myDS_3$label
#> [1] "3mg MD SC (first dose)"
#> 
#> $FG$DSV$ds$DW_myDS_3$MOD_TYPE
#> [1] "DW"
#> 
#> $FG$DSV$ds$DW_myDS_3$id
#> [1] "DW"
#> 
#> $FG$DSV$ds$DW_myDS_3$DS
#> # A tibble: 240 × 29
#>    NTIME_DY NTIME_HR    ID TIME_DY TIME_HR   AMT     DV RECDESC  DOSE DOSE_STR
#>       <dbl>    <dbl> <dbl>   <dbl>   <dbl> <dbl>  <dbl> <chr>   <dbl> <chr>   
#>  1   0.0104     0.25   241  0.0104    0.25     0   1.78 C_ng_ml     3 3 mg    
#>  2   0.0208     0.5    241  0.0208    0.5      0   3.55 C_ng_ml     3 3 mg    
#>  3   0.0417     1      241  0.0417    1        0   7.06 C_ng_ml     3 3 mg    
#>  4   0.0833     2      241  0.0833    2        0  13.9  C_ng_ml     3 3 mg    
#>  5   0.167      4      241  0.167     4        0  27.0  C_ng_ml     3 3 mg    
#>  6   0.333      8      241  0.333     8        0  51.1  C_ng_ml     3 3 mg    
#>  7   1         24      241  1        24        0 123.   C_ng_ml     3 3 mg    
#>  8   2         48      241  2        48        0 179.   C_ng_ml     3 3 mg    
#>  9   3         72      241  3        72        0 200.   C_ng_ml     3 3 mg    
#> 10   4         96      241  4        96        0 204.   C_ng_ml     3 3 mg    
#> # … with 230 more rows, and 19 more variables: Cohort <chr>, ROUTE <chr>,
#> #   WT <dbl>, SUBTYPE <chr>, SEX <chr>, F1 <dbl>, ka <dbl>, CL <dbl>, Vc <dbl>,
#> #   Vp <dbl>, Q <dbl>, CMT <chr>, DUR <dbl>, EVID <dbl>, NDose <chr>,
#> #   DOSE_NUM <dbl>, SUBTYPE_ID <dbl>, SEX_ID <dbl>, TIME <dbl>
…
#> [1] "08b97e9b55d0e25fa1c412889eb0f302"
#> 
#> 
#> $FG$DSV$ds$DW_myDS_4
#> $FG$DSV$ds$DW_myDS_4$label
#> [1] "Parameters"
#> 
#> $FG$DSV$ds$DW_myDS_4$MOD_TYPE
#> [1] "DW"
#> 
#> $FG$DSV$ds$DW_myDS_4$id
#> [1] "DW"
#> 
#> $FG$DSV$ds$DW_myDS_4$DS
#> # A tibble: 1,800 × 7
#> # Groups:   ID [360]
#>       ID  DOSE DOSE_STR Cohort     ROUTE parameter values
#>    <dbl> <dbl> <chr>    <chr>      <chr> <chr>      <dbl>
#>  1     1     3 3 mg     SD 3 mg IV IV    ka         0.449
#>  2     1     3 3 mg     SD 3 mg IV IV    CL         0.284
#>  3     1     3 3 mg     SD 3 mg IV IV    Vc         2.99 
#>  4     1     3 3 mg     SD 3 mg IV IV    Vp         4.19 
#>  5     1     3 3 mg     SD 3 mg IV IV    Q          0.325
#>  6     2     3 3 mg     SD 3 mg IV IV    ka         0.287
#>  7     2     3 3 mg     SD 3 mg IV IV    CL         0.182
#>  8     2     3 3 mg     SD 3 mg IV IV    Vc         2.58 
#>  9     2     3 3 mg     SD 3 mg IV IV    Vp         2.5  
#> 10     2     3 3 mg     SD 3 mg IV IV    Q          1.71 
#> # … with 1,790 more rows
…
