Set the Module State — FM_set_mod_state • formods
…
#> 
#> $userData$FM$FM_UD$UD$sheets
#> [1] "DATA" "DDT" 
#> 
#> $userData$FM$FM_UD$UD$code
#> [1] "myDS = readxl::read_excel(path=\"TEST_DATA.xlsx\", sheet=\"DATA\")\nmyDS = janitor::clean_names(myDS, case=\"none\")"
#> 
#> $userData$FM$FM_UD$UD$object_name
#> [1] "myDS"
#> 
#> $userData$FM$FM_UD$UD$checksum
#> [1] "897d952fecbc804999396a96f9df4b20"
#> 
#> $userData$FM$FM_UD$UD$contents
#> # A tibble: 10,680 × 33
#>       ID TIME_DY TIME_HR NTIME_DY NTIME_HR  TIME     AMT    DV RECDESC     DOSE
#>    <dbl>   <dbl>   <dbl>    <dbl>    <dbl> <dbl>   <dbl> <dbl> <chr>      <dbl>
#>  1     1       0       0        0        0     0 3000000    0  dose     3000000
#>  2     1       0       0        0        0     0       0 1250  BM_ng_ml 3000000
#>  3     1       0       0        0        0     0       0    0  C_ng_ml  3000000
#>  4     1       1      24        1       24    24       0 1647  BM_ng_ml 3000000
#>  5     1       1      24        1       24    24       0  690. C_ng_ml  3000000
#>  6     1       2      48        2       48    48       0 1947  BM_ng_ml 3000000
#>  7     1       2      48        2       48    48       0  588. C_ng_ml  3000000
#>  8     1       3      72        3       72    72       0 2170  BM_ng_ml 3000000
#>  9     1       3      72        3       72    72       0  506. C_ng_ml  3000000
#> 10     1       4      96        4       96    96       0 2332  BM_ng_ml 3000000
#> # ℹ 10,670 more rows
#> # ℹ 23 more variables: DOSE_STR <chr>, Cohort <chr>, ROUTE <chr>, WT <dbl>,
#> #   SUBTYPE <chr>, SEX <chr>, F1 <dbl>, ka <dbl>, CL <dbl>, Vc <dbl>, Vp <dbl>,
#> #   Q <dbl>, BM_IC <dbl>, kdeg_BM <dbl>, Emax <dbl>, EC50 <dbl>, CMT <chr>,
#> #   DUR <dbl>, EVID <dbl>, NDose <chr>, DOSE_NUM <dbl>, SUBTYPE_ID <dbl>,
#> #   SEX_ID <dbl>
…
