Generate Code and Load DS — UD_ds_read • formods
…
# We will also attach the sheets along with it
sheets = readxl::excel_sheets(data_file_local)

ds_read_res = UD_ds_read(state, 
  data_file_ext   = data_file_ext,
  data_file_local = data_file_local,
  data_file       = data_file,
  sheets          = sheets,
  sheet          = sheet)

ds_read_res
#> $contents
#> # A tibble: 18,360 × 33
#>       ID  TIME NTIME…¹ NTIME…² TIME_DY TIME_HR   AMT    DV RECDESC  DOSE DOSE_…³
#>    <dbl> <dbl>   <dbl>   <dbl>   <dbl>   <dbl> <dbl> <dbl> <chr>   <dbl> <chr>  
#>  1     1  0     0         0     0         0      3e6    0  dose        3 3 mg   
#>  2     1  0.25  0.0104    0.25  0.0104    0.25   0   1255  BM_ng_…     3 3 mg   
#>  3     1  0.25  0.0104    0.25  0.0104    0.25   0    816  C_ng_ml     3 3 mg   
#>  4     1  0.5   0.0208    0.5   0.0208    0.5    0   1259  BM_ng_…     3 3 mg   
#>  5     1  0.5   0.0208    0.5   0.0208    0.5    0    814. C_ng_ml     3 3 mg   
#>  6     1  1     0.0417    1     0.0417    1      0   1269  BM_ng_…     3 3 mg   
#>  7     1  1     0.0417    1     0.0417    1      0    812. C_ng_ml     3 3 mg   
#>  8     1  2     0.0833    2     0.0833    2      0   1287  BM_ng_…     3 3 mg   
#>  9     1  2     0.0833    2     0.0833    2      0    806. C_ng_ml     3 3 mg   
#> 10     1  4     0.167     4     0.167     4      0   1324  BM_ng_…     3 3 mg   
#> # … with 18,350 more rows, 22 more variables: Cohort <chr>, ROUTE <chr>,
#> #   WT <dbl>, SUBTYPE <chr>, SEX <chr>, F1 <dbl>, ka <dbl>, CL <dbl>, Vc <dbl>,
#> #   Vp <dbl>, Q <dbl>, BM_IC <dbl>, kdeg_BM <dbl>, Emax <dbl>, EC50 <dbl>,
#> #   CMT <chr>, DUR <dbl>, EVID <dbl>, NDose <chr>, DOSE_NUM <dbl>,
#> #   SUBTYPE_ID <dbl>, SEX_ID <dbl>, and abbreviated variable names ¹​NTIME_DY,
#> #   ²​NTIME_HR, ³​DOSE_STR
…
